{
    "job_id": 2,
    "url": "http://62.210.100.210:8099/12.jpg",
    "effects_urls": [
        "http://62.210.100.210/effect2_3.jpg",
        "http://62.210.100.210/effect2_1.jpg",
        "http://62.210.100.210/effect2_2.jpg"
    ],
    "hash": "c5f996416c3f11c6",
    "data": {
        "quality": {
            "brightness": {
                "icon": "",
                "max": 1000,
                "min": 0,
                "actual": 141.29718549183244
            },
            "resolution": {
                "icon": "",
                "height": 480,
                "width": 640
            },
            "orientation": {
                "icon": "",
                "max": 8,
                "min": 0,
                "actual": 1
            },
            "blur": {
                "icon": "",
                "max": 5000,
                "min": 0,
                "actual": 387.9259876057943
            },
            "watermark": {
                "icon": "",
                "is_present": false
            },
            "pixelation": {
                "icon": "",
                "max": 100,
                "min": 0,
                "actual": 37.534462890625
            },
            "colorfulness": {
                "icon": "",
                "max": 100,
                "min": 0,
                "actual": 28.52534311419112
            },
            "aesthetic": {
                "icon": "",
                "value": "0.722153"
            }
        },
        "places": {
            "typeOfEnvironment": {
                "value": "outdoor"
            },
            "lighting": {
                "value": "natural light"
            },
            "sceneAttributes": {
                "value": [
                    "natural light",
                    "open area",
                    "far-away horizon",
                    "boating",
                    "ocean",
                    "sunny",
                    "swimming",
                    "natural",
                    "moist"
                ]
            },
            "sceneCategories": {
                "value": [
                    [
                        "beach",
                        0.31379327178001404
                    ],
                    [
                        "ice_floe",
                        0.20905768871307373
                    ],
                    [
                        "ice_shelf",
                        0.07349688559770584
                    ],
                    [
                        "ocean",
                        0.04415509104728699
                    ],
                    [
                        "wave",
                        0.03932024538516998
                    ]
                ]
            }
        },
        "nsfw": {
            "safeForChildren": true
        },
        "face": [{
                "image": [
                    "http://www.pngmart.com/files/4/Arnold-Schwarzenegger-PNG-Clipart.png"
                ],
                "rectangle": [
                    [
                        418,
                        284
                    ],
                    [
                        662,
                        566
                    ]
                ],
                "gender": "F",
                "age": "23",
                "emotion": "sad"
            },
            {
                "image": [
                    "http://62.210.100.210:8099/chip_1.png"
                ],
                "rectangle": [
                    [
                        467, -25
                    ],
                    [
                        655,
                        170
                    ]

                ],
                "gender": "F",
                "age": "26",
                "emotion": "smiling"
            },
            {
                "image": [
                    "http://62.210.100.210:8099/chip_2.png"
                ],
                "rectangle": [
                    [
                        325,
                        14
                    ],
                    [
                        492,
                        181
                    ]
                ],
                "gender": "F",
                "age": "32",
                "emotion": "smiling"
            },
            {
                "image": [
                    "http://62.210.100.210:8099/chip_3.png"
                ],
                "rectangle": [
                    [
                        209,
                        127
                    ],
                    [
                        369,
                        334
                    ]
                ],
                "gender": "F",
                "age": "21",
                "emotion": "neutral"
            },
            {
                "image": [
                    "http://62.210.100.210:8099/chip_4.png"
                ],
                "rectangle": [
                    [
                        670,
                        232
                    ],
                    [
                        871,
                        490
                    ]
                ],
                "gender": "F",
                "age": "24",
                "emotion": "smiling"
            },
            {
                "image": [
                    "http://62.210.100.210:8099/chip_5.png"
                ],
                "rectangle": [
                    [
                        49,
                        352
                    ],
                    [
                        270,
                        650
                    ]
                ],
                "gender": "F",
                "age": "22",
                "emotion": "smiling"
            }


        ],
        "dominantColor": [{
                "value": [
                    186,
                    203,
                    225
                ],
                "score": 40
            },
            {
                "value": [
                    50,
                    56,
                    69
                ],
                "score": 27
            },
            {
                "value": [
                    94,
                    106,
                    126
                ],
                "score": 22
            },
            {
                "value": [
                    97,
                    74,
                    71
                ],
                "score": 19
            }
        ],
        "weather": {
            "weather": {
                "value": [{
                    "name": "clear",
                    "icon": "http://www.tnlds.com/wp-content/uploads/2014/01/Sunny-icon.png"
                }]
            }
        }
    }
}