<?xml version="1.0" encoding="utf-8"?>
<!-- Generator: Adobe Illustrator 22.1.0, SVG Export Plug-In . SVG Version: 6.00 Build 0)  -->
<svg version="1.1" id="Layer_1" xmlns="http://www.w3.org/2000/svg" xmlns:xlink="http://www.w3.org/1999/xlink" x="0px" y="0px"
	 viewBox="0 0 446 400" style="enable-background:new 0 0 446 400;" xml:space="preserve">
<style type="text/css">
	.st0{fill:#FF4176;}
	.st1{fill:#33577B;}
	.st2{fill:#FF4176;stroke:#33577B;stroke-miterlimit:10;}
	.st3{fill:#33577B;stroke:#33577B;stroke-miterlimit:10;}
	.st4{fill:#333333;}
	.st5{fill:#FFA64D;}
	.st6{fill:#FF4176;stroke:#33577B;stroke-width:0.75;stroke-miterlimit:10;}
	.st7{fill:#33577B;stroke:#33577B;stroke-width:0.75;stroke-miterlimit:10;}
	.st8{fill:#33577B;stroke:#33577B;stroke-width:0.5;stroke-miterlimit:10;}
	.st9{fill:#FF8939;}
	.st10{fill:#0B3354;}
	.st11{fill:url(#SVGID_1_);}
	.st12{fill:#FC1A60;}
	.st13{fill:none;stroke:#FC1A60;stroke-width:0.75;stroke-miterlimit:10;}
	.st14{fill:#FFB936;}
	.st15{fill:url(#SVGID_2_);}
	.st16{fill:url(#SVGID_3_);}
	.st17{fill:#33577B;stroke:#33577B;stroke-width:1.5;stroke-miterlimit:10;}
	.st18{fill:#FFFFFF;}
	.st19{fill:#2F7E93;}
	.st20{fill:none;stroke:#33577B;stroke-width:4;stroke-miterlimit:10;}
	.st21{fill:none;stroke:#FF4176;stroke-width:4;stroke-miterlimit:10;}
	.st22{fill:#FF4176;stroke:#33577B;stroke-width:4;stroke-miterlimit:10;}
	.st23{fill:#EFEFEF;}
	.st24{fill:#00D4FF;}
	.st25{fill:#E6E7E8;}
	.st26{fill:#BCBEC0;}
	.st27{fill:#F1F2F2;}
	.st28{fill:#58595B;}
	.st29{opacity:0.3;}
	.st30{fill:#EDF0F4;}
	.st31{fill:#6D6E71;}
	.st32{fill:#99EEFF;}
	.st33{fill:#FFB936;stroke:#03536B;stroke-width:2;stroke-miterlimit:10;}
	.st34{fill:#EF185B;}
	.st35{fill:#BF8B29;}
	.st36{fill:#03536B;}
</style>
<g>
	<g>
		<path class="st0" d="M206.7,173c6.3,1,15.9,10.6,16.2,10.6c0.3-0.1,8.1-9.3,14.3-10.4c0.3,0,2.9-0.3,3.9-0.3
			c0.1,0.2,0.4,0.2,0.6,0.2c1.7,0.2,3.4,0.7,5,1.5c5,2.5,7.5,6.8,8.6,12c0.2,1,0.1,2.1,0.6,3.1c0,1.1,0,2.1,0,3.2
			c-0.2,0.1-0.2,0.3-0.2,0.5c-0.3,2.1-1.1,4.1-2.1,5.9c-2.1,3.8-4.8,7-7.9,10.1c-6.7,6.7-14.2,12.2-22.2,17.3
			c-0.6,0.4-1,0.2-1.4-0.1c-4.9-3.1-9.5-6.4-14-10c-5-4.1-9.8-8.4-13.7-13.7c-2.1-2.9-3.8-6-4.3-9.6c0-1.2,0-2.4,0-3.6
			c0.1-1.8,0.4-3.6,1-5.3c1.8-5.7,5.5-9.5,11.4-11C203.1,173.3,206.5,173,206.7,173z"/>
		<path class="st1" d="M222.9,227.5c-0.5,0-0.8-0.2-1.1-0.4c-5-3.2-9.7-6.5-14-10c-4.5-3.6-9.6-8.1-13.8-13.8
			c-2.6-3.6-3.9-6.6-4.4-9.8l0-3.6c0.1-2,0.4-3.8,1-5.4c1.9-6.1,5.9-9.9,11.7-11.3c0.6-0.1,4.1-0.5,4.5-0.5l0,0
			c5.5,0.9,13.2,7.8,15.7,10.1c0.2,0.1,0.3,0.3,0.4,0.4c0.1-0.1,0.2-0.2,0.3-0.3c2.1-2.2,8.6-9,14-9.9c0.3,0,2.9-0.3,4-0.3h0.3
			l0.1,0.2c0,0,0,0,0,0c0.1,0,0.2,0,0.2,0c2,0.3,3.6,0.8,5.1,1.5c4.7,2.4,7.6,6.4,8.9,12.4c0.1,0.4,0.1,0.8,0.2,1.2
			c0.1,0.6,0.1,1.2,0.4,1.8l0,0.2v3.4l-0.2,0.1c0,0,0,0,0,0l0,0.1c-0.3,2-1,4-2.1,6.1c-1.8,3.3-4.3,6.6-8,10.2
			c-6,6-13.1,11.5-22.3,17.4C223.5,227.4,223.2,227.5,222.9,227.5z M206.6,173.5c-0.4,0-3.4,0.3-4.1,0.5c-5.5,1.4-9.1,4.9-11,10.7
			c-0.5,1.6-0.8,3.3-0.9,5.2l0,3.5c0.4,3,1.7,5.9,4.2,9.3c4.1,5.6,9.2,10.1,13.6,13.6c4.3,3.5,9,6.8,13.9,10
			c0.4,0.3,0.6,0.3,0.9,0.1c9.1-5.8,16.2-11.3,22.1-17.2c3.6-3.6,6-6.7,7.8-10c1.1-2,1.7-3.9,2-5.8c0-0.2,0-0.4,0.2-0.6v-2.9
			c-0.3-0.7-0.3-1.3-0.4-2c0-0.4-0.1-0.7-0.2-1.1c-1.2-5.6-3.9-9.4-8.3-11.7c-1.4-0.7-3-1.2-4.8-1.4c-0.2,0-0.5,0-0.7-0.2
			c-1.1,0-3.4,0.2-3.6,0.3c-3.4,0.6-7.9,3.8-13.5,9.6c-0.6,0.6-0.6,0.7-0.8,0.7l-0.2,0.1l-0.2-0.1c-0.1,0-0.2-0.1-0.9-0.8
			C215.2,177.4,210.1,174.1,206.6,173.5C206.6,173.5,206.6,173.5,206.6,173.5z"/>
	</g>
	<g>
		<path class="st1" d="M222.9,231.6c-1,0-2.1-0.3-3.3-1c-5.1-3.2-10-6.7-14.4-10.3c-4.7-3.8-10.1-8.5-14.5-14.6
			c-1.9-2.6-4.4-6.6-5.2-11.6l-0.1-0.7l0-3.7l0-0.2c0.2-2.3,0.5-4.4,1.2-6.4c2.4-7.4,7.5-12.3,14.7-14.1c0.6-0.1,4.8-0.8,6.1-0.6
			l0,0c5.9,0.9,11.3,3.7,15.3,7.6c3.7-4,8.2-6.4,13.7-7.4c0.6-0.1,3.5-0.4,4.7-0.4c0,0,2-0.1,2.6,0c1.4,0.3,3.6,1.4,5.1,2.2
			c5.8,3,9.5,8.1,11.1,15.2c0.1,0.5,0.2,1.1,0.2,1.6c0,0.2,0.1,0.5,0.1,0.7c0.2,1.9,0,5.9-0.3,7.8c-0.3,1.9-1.2,3.8-2.3,5.7
			c-2,3.7-4.8,7.2-8.7,11.1c-6.2,6.2-13.5,11.9-23,17.9C225.4,231.1,224.3,231.6,222.9,231.6z M194.8,193c0.4,2.2,1.5,4.5,3.4,7.2
			c3.8,5.2,8.6,9.4,12.8,12.9c3.7,3,7.6,5.8,11.8,8.6c8-5.2,14.2-10.1,19.5-15.4c3.3-3.3,5.5-6.1,7.1-9c0.8-1.6,1.4-3,1.6-4.4
			c0-0.3,0.1-0.5,0.1-0.8v-1.4c-0.2-0.8-0.3-1.6-0.4-2.2c0-0.2,0-0.5-0.1-0.7c-0.9-4.4-2.8-7.2-6.1-8.8c-0.9-0.5-2-0.8-3.3-1
			c-0.4,0-0.7-0.1-1-0.1c-0.9,0.1-2.1,0.2-2.4,0.2c-4.5,0.8-7.9,3.2-10.5,7.6c-0.5,1.1-1.4,2-2.7,2.5l-1.6,0.6l-1.6-0.5
			c-1.4-0.5-2.4-1.4-3.1-2.8c-2.2-3.7-6.8-6.6-11.9-7.6c-0.8,0.1-2.5,0.3-3,0.3c-4,1-6.5,3.5-7.9,7.9c-0.4,1.2-0.6,2.5-0.7,4
			L194.8,193z M226.7,181.2L226.7,181.2C226.7,181.2,226.7,181.2,226.7,181.2z"/>
		<path class="st1" d="M222.9,232.1c-1.2,0-2.4-0.4-3.6-1.1c-5.2-3.3-10-6.7-14.5-10.3c-4.7-3.8-10.1-8.6-14.6-14.7
			c-1.9-2.6-4.5-6.7-5.2-11.8l-0.1-0.7l0-3.8l0-0.2c0.2-2.4,0.5-4.5,1.2-6.5c2.4-7.6,7.6-12.6,15-14.4c0.6-0.1,4.9-0.8,6.3-0.6
			c5.8,0.9,11.1,3.6,15.2,7.4c3.7-3.8,8.2-6.2,13.6-7.1c0.6-0.1,3.5-0.4,4.8-0.4c0.2,0,2-0.1,2.7,0c1.4,0.3,3.6,1.4,5.1,2.1l0.1,0.1
			c6,3,9.8,8.3,11.3,15.6c0.1,0.6,0.2,1.1,0.2,1.7c0,0.1,0,0.2,0,0.4l0,0.3c0.2,2,0,6-0.3,7.9c-0.3,2-1.2,3.9-2.3,5.9
			c-2,3.7-4.8,7.3-8.8,11.3c-6.2,6.2-13.6,11.9-23,18C225.6,231.6,224.4,232.1,222.9,232.1z M206.7,168.9c-1.6,0-4.9,0.5-5.3,0.6
			c-7,1.8-12,6.5-14.3,13.8c-0.6,1.9-1,4-1.1,6.3l0,0.2l0.1,4.3c0.7,4.9,3.2,8.8,5.1,11.4c4.4,6.1,9.8,10.7,14.4,14.5
			c4.4,3.6,9.2,7,14.4,10.3c1,0.6,2,1,3.1,1c1.2,0,2.2-0.5,2.8-0.9c9.4-6,16.7-11.7,22.9-17.9c3.9-3.9,6.6-7.4,8.6-11
			c1-1.9,2-3.7,2.2-5.6c0.2-1.8,0.5-5.7,0.3-7.7l0-0.3c0-0.1,0-0.3,0-0.4c-0.1-0.5-0.1-1-0.2-1.6c-1.5-7-5.1-12-10.8-14.9l-0.1-0.1
			c-1.4-0.7-3.6-1.8-4.8-2c-0.4-0.1-1.7,0-2.5,0c-1.2,0-4.1,0.2-4.6,0.3c-5.3,0.9-9.8,3.3-13.4,7.2l-0.3,0.4l-0.4-0.4
			c-4-3.9-9.3-6.6-15.1-7.5C207.2,168.9,207,168.9,206.7,168.9z M222.9,222.2l-0.3-0.2c-4.2-2.8-8.2-5.7-11.9-8.6
			c-4.2-3.4-9.1-7.7-12.9-12.9c-2-2.8-3.1-5.1-3.5-7.4l0-0.1l0-3c0.1-1.6,0.4-2.9,0.8-4.2c1.4-4.5,4.2-7.2,8.3-8.2
			c0.5-0.1,2.3-0.3,3-0.3l0.1,0l0.1,0c5.3,1,10,4,12.3,7.8c0.6,1.3,1.6,2.2,2.8,2.6l1.5,0.5l1.4-0.6c1.1-0.4,2-1.3,2.4-2.2
			c2.7-4.6,6.2-7.1,10.9-7.9c0.3,0,1.6-0.2,2.5-0.2l0.1,0l0.1,0c0.3,0.1,0.6,0.1,0.9,0.1c1.4,0.2,2.5,0.5,3.5,1
			c3.5,1.8,5.4,4.6,6.4,9.2c0,0.2,0.1,0.4,0.1,0.6l0,0.1c0.1,0.6,0.1,1.3,0.4,2.1l0,0.1l0,1.6c-0.1,0.2-0.1,0.5-0.1,0.7
			c-0.2,1.5-0.8,3-1.6,4.6c-1.6,3-3.8,5.8-7.2,9.1c-5.4,5.3-11.6,10.3-19.6,15.5L222.9,222.2z M195.3,192.9c0.4,2.2,1.4,4.3,3.3,7
			c3.8,5.2,8.5,9.4,12.7,12.8c3.5,2.9,7.4,5.7,11.5,8.4c7.8-5.1,13.9-10,19.1-15.2c3.3-3.3,5.4-6,7-8.9c0.8-1.5,1.3-2.9,1.5-4.2
			c0-0.3,0.1-0.5,0.1-0.8v-1.3c-0.2-0.8-0.3-1.6-0.4-2.2l0-0.1c0-0.2,0-0.3-0.1-0.5c-0.9-4.3-2.7-6.9-5.9-8.5
			c-0.9-0.4-1.9-0.7-3.1-0.9c-0.3,0-0.6-0.1-0.9-0.1c-0.9,0.1-2,0.2-2.3,0.2c-4.4,0.7-7.6,3.1-10.2,7.3c-0.5,1.2-1.6,2.2-2.9,2.7
			l-1.8,0.7l-1.8-0.6c-1.5-0.5-2.6-1.5-3.4-3.1c-2.1-3.6-6.5-6.4-11.5-7.3c-0.8,0.1-2.4,0.2-2.8,0.3c-3.8,1-6.2,3.3-7.6,7.5
			c-0.4,1.2-0.6,2.4-0.7,3.9L195.3,192.9z M226.3,181.5l-0.1-0.1l0.9-0.4l0,0l0,0l0,0l0,0L226.3,181.5z"/>
	</g>
</g>
<g>
	<g>
		<path class="st1" d="M314.8,151.6c-2.8,0-5.2,2.3-5.2,5.2v153.4H126.1v-25.6c0-2.8-2.3-5.2-5.2-5.2c-2.8,0-5.2,2.3-5.2,5.2v81.7
			c0,18.6,15.1,33.7,33.7,33.7h136.7c18.6,0,33.7-15.1,33.7-33.7V156.7C319.9,153.9,317.6,151.6,314.8,151.6z M286.2,389.7H149.5
			c-12.9,0-23.4-10.5-23.4-23.4v-45.8h183.5v45.8C309.6,379.2,299.1,389.7,286.2,389.7z"/>
		<path class="st1" d="M286.2,400.5H149.5c-18.9,0-34.2-15.4-34.2-34.2v-81.7c0-3.1,2.5-5.7,5.7-5.7s5.7,2.5,5.7,5.7v25.1h182.5
			V156.7c0-3.1,2.5-5.7,5.7-5.7s5.7,2.5,5.7,5.7v209.5C320.4,385.1,305.1,400.5,286.2,400.5z M120.9,279.9c-2.6,0-4.7,2.1-4.7,4.7
			v81.7c0,18.3,14.9,33.2,33.2,33.2h136.7c18.3,0,33.2-14.9,33.2-33.2V156.7c0-2.6-2.1-4.7-4.7-4.7c-2.6,0-4.7,2.1-4.7,4.7v153.9
			H125.6v-26.1C125.6,282,123.5,279.9,120.9,279.9z M286.2,390.2H149.5c-13.2,0-23.9-10.7-23.9-23.9V320h184.5v46.3
			C310.1,379.5,299.4,390.2,286.2,390.2z M126.6,321v45.3c0,12.6,10.3,22.9,22.9,22.9h136.7c12.6,0,22.9-10.3,22.9-22.9V321H126.6z"
			/>
	</g>
	<g>
		<path class="st1" d="M120.9,128.3c2.8,0,5.2-2.3,5.2-5.2V71.4h137.5c2.8,0,5.2-2.3,5.2-5.2c0-2.8-2.3-5.2-5.2-5.2H126.1V47.6
			c0-12.9,10.5-23.4,23.4-23.4h131c2.8,0,5.2-2.3,5.2-5.2s-2.3-5.2-5.2-5.2h-131c-18.6,0-33.7,15.1-33.7,33.7v75.6
			C115.8,126,118.1,128.3,120.9,128.3z"/>
		<path class="st1" d="M120.9,128.8c-3.1,0-5.7-2.5-5.7-5.7V47.6c0-18.9,15.4-34.2,34.2-34.2h131c3.1,0,5.7,2.5,5.7,5.7
			s-2.5,5.7-5.7,5.7h-131c-12.6,0-22.9,10.3-22.9,22.9v13h137c3.1,0,5.7,2.5,5.7,5.7s-2.5,5.7-5.7,5.7h-137v51.3
			C126.6,126.3,124,128.8,120.9,128.8z M149.5,14.3c-18.3,0-33.2,14.9-33.2,33.2v75.6c0,2.6,2.1,4.7,4.7,4.7c2.6,0,4.7-2.1,4.7-4.7
			V70.9h138c2.6,0,4.7-2.1,4.7-4.7c0-2.6-2.1-4.7-4.7-4.7h-138v-14c0-13.2,10.7-23.9,23.9-23.9h131c2.6,0,4.7-2.1,4.7-4.7
			c0-2.6-2.1-4.7-4.7-4.7H149.5z"/>
	</g>
	<g>
		<path class="st1" d="M217.8,331.6c-13.1,0-23.8,10.7-23.8,23.8c0,13.1,10.7,23.8,23.8,23.8c13.1,0,23.8-10.7,23.8-23.8
			C241.6,342.2,231,331.6,217.8,331.6z M217.8,368.9c-7.4,0-13.5-6.1-13.5-13.5c0-7.4,6.1-13.5,13.5-13.5c7.4,0,13.5,6.1,13.5,13.5
			C231.3,362.8,225.3,368.9,217.8,368.9z"/>
		<path class="st1" d="M217.8,379.7c-13.4,0-24.3-10.9-24.3-24.3c0-13.4,10.9-24.3,24.3-24.3c13.4,0,24.3,10.9,24.3,24.3
			C242.1,368.8,231.2,379.7,217.8,379.7z M217.8,332.1c-12.8,0-23.3,10.5-23.3,23.3c0,12.8,10.5,23.3,23.3,23.3
			c12.8,0,23.3-10.5,23.3-23.3C241.1,342.5,230.7,332.1,217.8,332.1z M217.8,369.4c-7.7,0-14-6.3-14-14c0-7.7,6.3-14,14-14
			c7.7,0,14,6.3,14,14C231.8,363.1,225.6,369.4,217.8,369.4z M217.8,342.4c-7.2,0-13,5.8-13,13c0,7.2,5.8,13,13,13
			c7.2,0,13-5.8,13-13C230.8,348.2,225,342.4,217.8,342.4z"/>
	</g>
	<g>
		<path class="st1" d="M199.2,38.7c-2.8,0-5.2,2.3-5.2,5.2s2.3,5.2,5.2,5.2h37.3c2.8,0,5.2-2.3,5.2-5.2s-2.3-5.2-5.2-5.2H199.2z"/>
		<path class="st1" d="M236.5,49.5h-37.3c-3.1,0-5.7-2.5-5.7-5.7s2.5-5.7,5.7-5.7h37.3c3.1,0,5.7,2.5,5.7,5.7S239.6,49.5,236.5,49.5
			z M199.2,39.2c-2.6,0-4.7,2.1-4.7,4.7s2.1,4.7,4.7,4.7h37.3c2.6,0,4.7-2.1,4.7-4.7s-2.1-4.7-4.7-4.7H199.2z"/>
	</g>
	<g>
		<path class="st1" d="M360.4,0c-47.1,0-85.3,29.6-85.3,65.9c0,17.6,9.1,34.4,25.1,46.7c-9.2,9.7-22.5,18.7-36.3,18.7
			c-0.1,0-0.2,0-0.2,0c-2.5,0.1-4.5,1.7-5.1,4c-0.5,2.4,0.7,4.8,2.9,5.8c9.1,4.2,19,6.3,29.1,6.3c10.7,0,21.6-2.3,32.3-7
			c6.1-2.7,12.2-6.1,18.2-10.3c6.3,1.1,12.8,1.7,19.3,1.7c47.1,0,85.3-29.6,85.3-65.9C445.8,29.6,407.5,0,360.4,0z M360.4,121.5
			c-6.6,0-13.2-0.6-19.5-1.9c-1.4-0.3-2.9,0-4,0.9c-6,4.3-12.1,7.9-18.1,10.5c-11.5,5-23.2,7-34.4,5.8c11.1-5.1,20.8-13.6,27.5-21.8
			c0.9-1.1,1.3-2.6,1.1-4c-0.2-1.4-1-2.7-2.3-3.5c-16-10.6-25.2-25.7-25.2-41.5c0-30.7,33.7-55.6,75-55.6c41.4,0,75,24.9,75,55.6
			C435.4,96.5,401.8,121.5,360.4,121.5z"/>
		<path class="st1" d="M290.6,147.9c-10.3,0-20.1-2.1-29.3-6.3c-2.4-1.1-3.7-3.8-3.2-6.4c0.6-2.6,2.8-4.4,5.5-4.4l0.2,0
			c16.2,0,30-12.4,35.5-18.1c-16-12.5-24.8-29.1-24.8-46.7c0-36.6,38.5-66.4,85.8-66.4c47.3,0,85.8,29.8,85.8,66.4
			c0,36.6-38.5,66.4-85.8,66.4c-6.5,0-12.9-0.6-19.2-1.7c-6,4.1-12.1,7.6-18.1,10.2C312.4,145.5,301.4,147.9,290.6,147.9z
			 M263.6,131.8c-2.3,0.1-4.1,1.5-4.6,3.6c-0.5,2.1,0.6,4.3,2.6,5.2c9,4.1,18.8,6.2,28.9,6.2c10.7,0,21.5-2.3,32.1-7
			c6-2.6,12.1-6.1,18.1-10.2l0.2-0.1l0.2,0c6.3,1.1,12.8,1.7,19.3,1.7c46.8,0,84.8-29.3,84.8-65.4c0-36.1-38.1-65.4-84.8-65.4
			s-84.8,29.3-84.8,65.4c0,17.5,8.8,34,24.9,46.3l0.4,0.3l-0.4,0.4c-5.4,5.7-19.7,18.8-36.6,18.8L263.6,131.8z M290.5,137.6
			c-2.1,0-4.2-0.1-6.2-0.3l-1.8-0.2l1.7-0.8c9.8-4.5,19.8-12.4,27.3-21.7c0.8-1,1.2-2.3,1-3.6c-0.2-1.3-0.9-2.5-2-3.2
			c-16.2-10.7-25.5-26-25.5-41.9c0-30.9,33.9-56.1,75.5-56.1c41.6,0,75.5,25.2,75.5,56.1c0,30.9-33.9,56.1-75.5,56.1
			c-6.6,0-13.2-0.6-19.6-1.9c-1.3-0.3-2.6,0-3.6,0.8c-6,4.4-12.2,7.9-18.2,10.6C309.6,135.5,299.9,137.6,290.5,137.6z M286.2,136.4
			c10.6,0.7,21.7-1.3,32.4-5.9c6-2.6,12.1-6.1,18-10.4c1.3-0.9,2.9-1.3,4.4-1c6.3,1.3,12.9,1.9,19.4,1.9c41.1,0,74.5-24.7,74.5-55.1
			c0-30.4-33.4-55.1-74.5-55.1s-74.5,24.7-74.5,55.1c0,15.6,9.1,30.6,25,41.1c1.3,0.9,2.2,2.3,2.5,3.9c0.2,1.6-0.2,3.2-1.2,4.4
			C305,124.1,295.6,131.7,286.2,136.4z"/>
	</g>
	<g>
		<path class="st1" d="M323.5,67.7c-2.8,0-5.2,2.3-5.2,5.2v0.7c0,2.8,2.3,5.2,5.2,5.2c2.8,0,5.2-2.3,5.2-5.2v-0.7
			C328.7,70.1,326.4,67.7,323.5,67.7z"/>
		<path class="st1" d="M323.5,79.2c-3.1,0-5.7-2.5-5.7-5.7v-0.7c0-3.1,2.5-5.7,5.7-5.7s5.7,2.5,5.7,5.7v0.7
			C329.2,76.7,326.6,79.2,323.5,79.2z M323.5,68.2c-2.6,0-4.7,2.1-4.7,4.7v0.7c0,2.6,2.1,4.7,4.7,4.7s4.7-2.1,4.7-4.7v-0.7
			C328.2,70.3,326.1,68.2,323.5,68.2z"/>
	</g>
	<g>
		<path class="st1" d="M360.8,67.7c-2.8,0-5.2,2.3-5.2,5.2v0.7c0,2.8,2.3,5.2,5.2,5.2s5.2-2.3,5.2-5.2v-0.7
			C366,70.1,363.7,67.7,360.8,67.7z"/>
		<path class="st1" d="M360.8,79.2c-3.1,0-5.7-2.5-5.7-5.7v-0.7c0-3.1,2.5-5.7,5.7-5.7s5.7,2.5,5.7,5.7v0.7
			C366.5,76.7,364,79.2,360.8,79.2z M360.8,68.2c-2.6,0-4.7,2.1-4.7,4.7v0.7c0,2.6,2.1,4.7,4.7,4.7s4.7-2.1,4.7-4.7v-0.7
			C365.5,70.3,363.4,68.2,360.8,68.2z"/>
	</g>
	<g>
		<path class="st1" d="M398.1,67.7c-2.8,0-5.2,2.3-5.2,5.2v0.7c0,2.8,2.3,5.2,5.2,5.2c2.8,0,5.2-2.3,5.2-5.2v-0.7
			C403.3,70.1,401,67.7,398.1,67.7z"/>
		<path class="st1" d="M398.1,79.2c-3.1,0-5.7-2.5-5.7-5.7v-0.7c0-3.1,2.5-5.7,5.7-5.7s5.7,2.5,5.7,5.7v0.7
			C403.8,76.7,401.3,79.2,398.1,79.2z M398.1,68.2c-2.6,0-4.7,2.1-4.7,4.7v0.7c0,2.6,2.1,4.7,4.7,4.7c2.6,0,4.7-2.1,4.7-4.7v-0.7
			C402.8,70.3,400.7,68.2,398.1,68.2z"/>
	</g>
	<g>
		<path class="st1" d="M159.5,281.7c10.1,0,19.9-2.1,29-6.3c2.2-1,3.4-3.4,2.9-5.8c-0.5-2.4-2.6-4-5-4c-0.1,0-0.2,0-0.3,0
			c-13.8,0-27.1-9-36.3-18.7c16-12.3,25.1-29.1,25.1-46.7c0-19.9-11.5-38.6-31.4-51.1c-15.1-9.5-34.3-14.8-53.9-14.8
			c-47.1,0-85.3,29.6-85.3,65.9c0,36.3,38.3,65.9,85.3,65.9c6.5,0,13-0.6,19.3-1.7c6,4.2,12.1,7.6,18.2,10.3
			c3.4,1.5,6.9,2.8,10.4,3.8C144.9,280.6,152.3,281.7,159.5,281.7z M113.1,254.8c-0.9-0.6-1.9-1-3-1c-0.3,0-0.7,0-1,0.1
			c-6.4,1.3-12.9,1.9-19.5,1.9c-41.4,0-75-24.9-75-55.6s33.7-55.6,75-55.6c17.7,0,34.9,4.7,48.4,13.2c16.9,10.6,26.6,26.1,26.6,42.4
			c0,15.8-9.2,30.9-25.2,41.5c-1.2,0.8-2,2.1-2.3,3.5c-0.2,1.4,0.2,2.9,1.1,4c6.7,8.2,16.3,16.7,27.5,21.8c-8.2,0.8-16.7,0-25.3-2.5
			c-3.1-0.9-6.2-2-9.2-3.3C125.3,262.6,119.2,259.1,113.1,254.8z"/>
		<path class="st1" d="M159.5,282.2c-7.3,0-14.7-1.1-22.1-3.2c-3.5-1-7-2.3-10.5-3.8c-6-2.6-12.1-6.1-18.1-10.2
			c-6.3,1.1-12.8,1.7-19.2,1.7c-47.3,0-85.8-29.8-85.8-66.4s38.5-66.4,85.8-66.4c19.7,0,39,5.3,54.2,14.8
			c20.1,12.6,31.7,31.4,31.7,51.6c0,17.7-8.8,34.2-24.8,46.7c5.6,5.8,19.4,18.1,35.5,18.1c0.2,0,0.2,0,0.3,0c0,0,0,0,0,0
			c2.6,0,4.9,1.8,5.5,4.4c0.6,2.6-0.8,5.3-3.2,6.4C179.6,280.1,169.8,282.2,159.5,282.2z M109,263.9l0.2,0.1
			c6,4.2,12.1,7.6,18.1,10.2c3.4,1.5,6.9,2.7,10.3,3.8c7.3,2.1,14.6,3.2,21.8,3.2c10.1,0,19.8-2.1,28.8-6.2c2-0.9,3.1-3.1,2.6-5.2
			c-0.5-2.1-2.3-3.6-4.5-3.6l-0.2,0l-0.1,0c-16.9,0-31.3-13.2-36.6-18.8l-0.4-0.4l0.4-0.3c16-12.3,24.9-28.8,24.9-46.3
			c0-19.8-11.4-38.3-31.2-50.7c-15.1-9.5-34.1-14.7-53.6-14.7c-46.8,0-84.8,29.3-84.8,65.4s38.1,65.4,84.8,65.4
			c6.5,0,13-0.6,19.3-1.7L109,263.9z M159.5,271.9c-6.3,0-12.7-0.9-19.2-2.8c-3.1-0.9-6.2-2-9.2-3.3c-6-2.6-12.2-6.2-18.2-10.6v0
			c-1.1-0.8-2.4-1-3.6-0.8c-6.4,1.3-13,1.9-19.6,1.9c-41.6,0-75.5-25.2-75.5-56.1s33.9-56.1,75.5-56.1c17.8,0,35.1,4.7,48.7,13.3
			c17.1,10.7,26.8,26.3,26.8,42.8c0,16-9.3,31.2-25.5,41.9c-1.1,0.7-1.8,1.9-2,3.2c-0.2,1.3,0.2,2.6,1,3.6
			c7.5,9.2,17.5,17.1,27.3,21.7l1.7,0.8l-1.8,0.2C163.7,271.8,161.6,271.9,159.5,271.9z M110.1,253.3c1.2,0,2.3,0.4,3.3,1.1v0
			c6,4.3,12.1,7.8,18,10.4c3,1.3,6,2.4,9.1,3.3c7.9,2.3,15.7,3.2,23.3,2.6c-9.4-4.7-18.8-12.3-26-21.1c-1-1.2-1.4-2.9-1.2-4.4
			c0.2-1.6,1.1-3,2.5-3.9c15.9-10.5,25-25.5,25-41.1c0-16.1-9.6-31.5-26.4-42c-13.4-8.5-30.5-13.1-48.2-13.1
			c-41.1,0-74.5,24.7-74.5,55.1s33.4,55.1,74.5,55.1c6.6,0,13.1-0.6,19.4-1.9C109.4,253.3,109.7,253.3,110.1,253.3z"/>
	</g>
	<g>
		<path class="st1" d="M123.5,198.4c-2.8,0-5.2,2.3-5.2,5.2v0.7c0,2.8,2.3,5.2,5.2,5.2c2.8,0,5.2-2.3,5.2-5.2v-0.7
			C128.6,200.7,126.3,198.4,123.5,198.4z"/>
		<path class="st1" d="M123.5,209.9c-3.1,0-5.7-2.5-5.7-5.7v-0.7c0-3.1,2.5-5.7,5.7-5.7s5.7,2.5,5.7,5.7v0.7
			C129.1,207.4,126.6,209.9,123.5,209.9z M123.5,198.9c-2.6,0-4.7,2.1-4.7,4.7v0.7c0,2.6,2.1,4.7,4.7,4.7c2.6,0,4.7-2.1,4.7-4.7
			v-0.7C128.1,201,126,198.9,123.5,198.9z"/>
	</g>
	<g>
		<path class="st1" d="M86.2,198.4c-2.8,0-5.2,2.3-5.2,5.2v0.7c0,2.8,2.3,5.2,5.2,5.2c2.8,0,5.2-2.3,5.2-5.2v-0.7
			C91.3,200.7,89,198.4,86.2,198.4z"/>
		<path class="st1" d="M86.2,209.9c-3.1,0-5.7-2.5-5.7-5.7v-0.7c0-3.1,2.5-5.7,5.7-5.7s5.7,2.5,5.7,5.7v0.7
			C91.8,207.4,89.3,209.9,86.2,209.9z M86.2,198.9c-2.6,0-4.7,2.1-4.7,4.7v0.7c0,2.6,2.1,4.7,4.7,4.7s4.7-2.1,4.7-4.7v-0.7
			C90.8,201,88.7,198.9,86.2,198.9z"/>
	</g>
	<g>
		<path class="st1" d="M48.8,198.4c-2.8,0-5.2,2.3-5.2,5.2v0.7c0,2.8,2.3,5.2,5.2,5.2s5.2-2.3,5.2-5.2v-0.7
			C54,200.7,51.7,198.4,48.8,198.4z"/>
		<path class="st1" d="M48.8,209.9c-3.1,0-5.7-2.5-5.7-5.7v-0.7c0-3.1,2.5-5.7,5.7-5.7s5.7,2.5,5.7,5.7v0.7
			C54.5,207.4,52,209.9,48.8,209.9z M48.8,198.9c-2.6,0-4.7,2.1-4.7,4.7v0.7c0,2.6,2.1,4.7,4.7,4.7s4.7-2.1,4.7-4.7v-0.7
			C53.5,201,51.4,198.9,48.8,198.9z"/>
	</g>
</g>
</svg>
